SCR Data Summary
…
load(here("data", "clean", "data_3_no_missing.RData"), verbose = TRUE)   

Loading objects:
  data_no_missing

1 Data Cleaning

1.1 Raw data data_xlsx

The raw data data_xlsx loaded from ./data/raw/2024-07-16_FSARS_EDA_Long_V2_101-269.xlsx contains 124 subjects.

data_xlsx

# A tibble: 20,574 × 11
      id run      condition   trial cs_stim_time cs_scl cs_latency cs_amplitude
   <dbl> <chr>    <chr>       <dbl>        <dbl>  <dbl>      <dbl>        <dbl>
 1   101 Learning fear            1         95.9   9.91       2.20        0.735
 2   101 Learning fear            2        259.    7.68       2.26        2.31 
 3   101 Learning fear            3         NA    NA         NA          NA    
 4   101 Learning fear            4         NA    NA         NA          NA    
 5   101 Learning fear            5         NA    NA         NA          NA    
 6   101 Learning fear            6         NA    NA         NA          NA    
 7   101 Learning fear            7         NA    NA         NA          NA    
 8   101 Learning fear            8         NA    NA         NA          NA    
 9   101 Learning fear_safety     1         NA    NA         NA          NA    
10   101 Learning fear_safety     2         NA    NA         NA          NA    
# ℹ 20,564 more rows
# ℹ 3 more variables: cs_rise_time <dbl>, cs_size <dbl>, cs_onset <dbl>

length(unique(data_xlsx[["id"]]))

[1] 124

1.2 Cleaned data data_no_repeat_all

I first clean the dataset. I found that some trial numbers are repeated twice. One has reaction and cs variable values, and the other has no or missing values. I keep the row whose trial has values. The data set that removes all repeated trials with no values is saved in data_no_repeat_all.

data_no_repeat_all

# A tibble: 19,840 × 11
   id    run      condition   trial cs_stim_time cs_scl cs_latency cs_amplitude
   <chr> <chr>    <fct>       <int>        <dbl>  <dbl>      <dbl>        <dbl>
 1 101   Learning fear            1         95.9   9.91       2.20        0.735
 2 101   Learning fear            2        259.    7.68       2.26        2.31 
 3 101   Learning fear            3         NA    NA         NA          NA    
 4 101   Learning fear            4         NA    NA         NA          NA    
 5 101   Learning fear            5         NA    NA         NA          NA    
 6 101   Learning fear            6         NA    NA         NA          NA    
 7 101   Learning fear            7         NA    NA         NA          NA    
 8 101   Learning fear            8         NA    NA         NA          NA    
 9 101   Learning fear_safety     1         NA    NA         NA          NA    
10 101   Learning fear_safety     2         NA    NA         NA          NA    
# ℹ 19,830 more rows
# ℹ 3 more variables: cs_rise_time <dbl>, cs_size <dbl>, cs_onset <dbl>
…
Extincti Learning     Run1     Run2     Run3 
    2720     4960     4960     4960     2240 

table(data_combine_ext$run)

learn  run1  run2  run3 
 4960  4960  4960  4960 

1.4 Cleaned data data_no_missing

The data further cleaned is data_no_missing that removes all rows with no reaction values or physiological response. There are 2229 trials among 224 subjects that have physiological responses.

data_no_missing

# A tibble: 2,229 × 11
   id    run   condition     trial cs_stim_time cs_scl cs_latency cs_amplitude
   <chr> <chr> <fct>         <int>        <dbl>  <dbl>      <dbl>        <dbl>
 1 101   learn fear              1         95.9   9.91       2.20        0.735
 2 101   learn fear              2        259.    7.68       2.26        2.31 
 3 101   learn fear_safety       6        484.    9.05       1.34        3.66 
 4 101   learn reward            1         82.8  10.7        2.19        0.371
 5 101   learn reward            4        365.    8.56       3.40        1.71 
 6 101   run1  fear              4        979.   10.7        2.35        1.15 
 7 101   run1  fear_safety       3       1030.   10.9        4.18        0.911
 8 101   run2  fear_safety       6       1762.   13.1        2.53        0.528
 9 101   run2  reward            5       1718.    9.58       1.48        3.61 
10 101   run2  reward_safety     7       1875.   10.2        3.40        0.789
# ℹ 2,219 more rows
# ℹ 3 more variables: cs_rise_time <dbl>, cs_size <dbl>, cs_onset <dbl>
…
